…
O uso é simples, você deve passar as rodadas que você tem interesse.

A função baixa_rendas_brasileirao() retorna a um dataframe com as
rodadas desejadas.

``` r
rodadas <- 1:15
ano <- 2022
df_rendas <- rendas.brasileirao::baixa_rendas_brasileirao(n_rodadas = rodadas, ano = ano)

df_rendas
#> # A tibble: 150 × 42
#>    rodadas data       hora  clubem  clubev id_tabela id_clubem id_clubev escudom
#>    <chr>   <date>     <chr> <chr>   <chr>  <chr>     <chr>     <chr>     <chr>  
#>  1 1       2022-04-09 16h30 Flumin… Santo… 88416     11        17        /image…
#>  2 1       2022-04-09 19h00 Atléti… Flame… 88422     3         10        /image…
#>  3 1       2022-04-09 21h00 Palmei… Ceará… 88418     1         29        /image…
#>  4 1       2022-04-10 11h00 Coriti… Goiás… 88424     7         32        /image…
#>  5 1       2022-04-10 16h00 Atléti… Inter… 88415     4         13        /image…
#>  6 1       2022-04-10 16h00 Botafo… Corin… 88419     6         2         /image…
#>  7 1       2022-04-10 18h00 Fortal… Cuiab… 88421     47        45        /image…
#>  8 1       2022-04-10 19h00 São Pa… Athle… 88417     18        25        /image…
#>  9 1       2022-04-10 19h00 Avaí-SC Améri… 88423     26        22        /image…
#> 10 1       2022-04-11 20h00 Juvent… Braga… 88420     92        28        /image…
#> # … with 140 more rows, and 33 more variables: escudov <chr>, pagante <dbl>,
#> #   ingresso <dbl>, ingresso_vendido <dbl>, placarm_tn <chr>, placarv_tn <chr>,
#> #   prorrogacao <chr>, placarm_pr <chr>, placarv_pr <chr>, penaltis <chr>,
#> #   placarm_pe <chr>, placarv_pe <chr>, renda_bruta <dbl>,
#> #   renda_liq_sort <dbl>, renda_liq <dbl>, valor_renda_liq <dbl>,
#> #   estadio <chr>, cidade <chr>, id_periodo <chr>, so_por_rodada <chr>,
#> #   pm_abreviacao <chr>, pv_abreviacao <chr>, arbitro_principal <chr>, …
```
…
